<svg xmlns="http://www.w3.org/2000/svg" width="25" height="25" viewBox="0 0 25 25">
    <g fill="none" fill-rule="evenodd">
        <circle cx="12.5" cy="12.5" r="12.5" fill="#FF0200"/>
        <g>
            <g transform="translate(1.273 2.41) translate(4.727 .59)">
                <path fill="#FFE6E6" d="M15.723 7.591c-.237.829-.935 1.44-1.765 1.586-.56 1.956-2.206 3.423-4.2 3.748-.039.007-.08.008-.096.007l.16 1.364.374.59h.472c.274 0 .496.222.496.496s-.222.496-.496.496h-.744c-.17 0-.328-.087-.419-.23l-1.654-2.603-1.647.107c-.252.226-.548.4-.877.512-1.271.512-1.21.495-1.304.506-.01 0-.18.02-.735.08l.847.636h.579c.274 0 .496.222.496.496s-.222.496-.496.496c-.762 0-.867.033-1.042-.1-2.11-1.581-2.06-1.522-2.12-1.642-.09-.164-.08-.35.002-.489.043-.08-.157.275.443-.775-.49-.611-.757-1.365-.757-2.16v-.36c-.938-.211-.921-.196-1.028-.27-.003-.003-.085-.055-.14-.15-.076-.125-.095-.278-.041-.428.059-.16.463-.828 1.087-1.415.945-.89 2.103-1.36 3.348-1.36h4.148l1.416-.404c.19-.506.498-.996.91-1.339-.31-.944-.776-2.508-.862-3.494-.024-.273-.097-1.102.511-1.312.062-.022.125-.03.186-.027.365-.033.79.036 1.15.388.136-.276.36-.541.728-.541.393 0 .73.16.974.46.8.99.346 3.17.106 4.346.87.406 1.67 1.21 2.08 1.925.066.116.083.254.046.383l-.136.477z"/>
                <path fill="#FFF" d="M14.67 5.407c-.25.8-.538 1.47-.776 1.788-.744.992-1.489.992-2.233.992-.496 2.233-1.24 2.977-2.48 2.977-1.532 0-2.599-.684-3.226-1.488.045.696-.496 2.48-2.233 2.48-1.336 0-1.985-2.232-1.985-2.232s0 .295-.496.638v-.21l-.853-.192c-.277-.062-.446-.348-.37-.617.088-.296.639-1.02 1.1-1.454.946-.89 2.104-1.36 3.348-1.36h4.149l1.416-.404c.19-.506.498-.996.909-1.339-.31-.944-.775-2.508-.862-3.494-.024-.273-.096-1.102.512-1.312.061-.022.125-.03.186-.027.364-.033.789.036 1.149.388.137-.276.36-.541.728-.541.394 0 .73.16.975.46.8.99.346 3.17.105 4.346.356.166.67.379.937.601z"/>
                <circle cx="12.568" cy="5.568" r="1" fill="#FFF"/>
            </g>
            <path fill="#FFF" d="M2.727 5.59h4c0 .553-.447 1-1 1h-4c0-.551.448-1 1-1zM1.727 8.59h1c0 .553-.447 1-1 1h-1c0-.551.448-1 1-1z" transform="translate(1.273 2.41)"/>
        </g>
    </g>
</svg>
